// Jest Snapshot v1, https://goo.gl/fbAQLP

exports[`Click on header title links to main site 1`] = `
.c1 {
  display: block;
  height: 100%;
  -webkit-text-decoration: none;
  text-decoration: none;
}

.c0 {
  cursor: pointer;
  overflow: hidden;
  box-sizing: border-box;
  width: calc(25% - 10px);
  height: 80px;
  margin: 5px;
  background-color: #0079bf;
  border-radius: 3px;
}

.c0:hover {
  background-color: #0D5B8E;
}

.c2 {
  margin: 0;
  padding: 5px;
  color: white;
  word-wrap: break-word;
  font-weight: 700;
  font-size: 16px;
}

@media (max-width:80em) {
  .c0 {
    width: calc(33% - 10px);
  }
}

@media (max-width:44.375em) {
  .c0 {
    width: calc(50% - 10px);
  }
}

<div
  class="c0"
>
  <a
    class="c1"
    href="/boards/123"
  >
    <h3
      class="c2"
    >
      Board
    </h3>
  </a>
</div>
`;
